{
    "name": "LogViewer",
    "alias": "logviewer",
    "description": "",
    "keywords": [],
    "active": 1,
    "order": 1,
    "providers": [
        "Modules\\LogViewer\\Providers\\LogViewerServiceProvider",
        "Modules\\LogViewer\\Providers\\RouteServiceProvider"
    ],
    "aliases": {},
    "files": [
        
    ],
    "requires": []
}
